{
	"info": {
		"_postman_id": "6fc11b3d-dad9-4df6-8b29-ac5c411f1a1a",
		"name": "Maybank",
		"schema": "https://schema.getpostman.com/json/collection/v2.1.0/collection.json"
	},
	"item": [
		{
			"name": "Register a new APP user",
			"request": {
				"method": "POST",
				"header": [],
				"body": {
					"mode": "raw",
					"raw": "{\r\n    \"firstName\": \"Khing\",\r\n    \"lastName\": \"Wong\",\r\n    \"email\": \"test1@test.com\",\r\n    \"address\": {\r\n        \"addressLine1\": \"Jln Ken Rimba\",\r\n        \"city\": \"Shah Alam\",\r\n        \"state\": \"Selangor\",\r\n        \"postcode\": \"40200\",\r\n        \"countryCode\": \"MY\"\r\n    }\r\n}",
					"options": {
						"raw": {
							"language": "json"
						}
					}
				},
				"url": {
					"raw": "http://localhost:8281/user/register",
					"protocol": "http",
					"host": [
						"localhost"
					],
					"port": "8281",
					"path": [
						"user",
						"register"
					]
				}
			},
			"response": []
		},
		{
			"name": "Update existing APP user",
			"request": {
				"method": "POST",
				"header": [],
				"body": {
					"mode": "raw",
					"raw": "{\r\n    \"userHashId\": \"jqub67nw9928e\",\r\n    \"appUser\": {\r\n        \"firstName\": \"Khing\",\r\n        \"lastName\": \"Wong\",\r\n        \"email\": \"test1@test.com\",\r\n        \"address\": {\r\n            \"addressLine1\": \"Jln Tun Perak\",\r\n            \"city\": \"Kuala Lumpur\",\r\n            \"state\": \"Kuala Lumpur\",\r\n            \"postcode\": \"50050\",\r\n            \"countryCode\": \"MY\"\r\n        }\r\n    }\r\n}",
					"options": {
						"raw": {
							"language": "json"
						}
					}
				},
				"url": {
					"raw": "http://localhost:8281/user/update",
					"protocol": "http",
					"host": [
						"localhost"
					],
					"port": "8281",
					"path": [
						"user",
						"update"
					]
				}
			},
			"response": []
		},
		{
			"name": "Get APP user detail",
			"request": {
				"method": "GET",
				"header": [],
				"url": {
					"raw": "http://localhost:8281/user/detail/jqub67nw9928e",
					"protocol": "http",
					"host": [
						"localhost"
					],
					"port": "8281",
					"path": [
						"user",
						"detail",
						"jqub67nw9928e"
					]
				}
			},
			"response": []
		},
		{
			"name": "Get list of APP users",
			"request": {
				"method": "GET",
				"header": [],
				"url": {
					"raw": "http://localhost:8281/user/list/1/10",
					"protocol": "http",
					"host": [
						"localhost"
					],
					"port": "8281",
					"path": [
						"user",
						"list",
						"1",
						"10"
					]
				}
			},
			"response": []
		}
	]
}